vhdl/state_machine/test1.vcd
$date
  Sat May 06 03:35:08 2017
$end
$version
  GHDL v0
$end
$timescale
  1 fs
$end
$var reg 1 ! start_tb $end
$var reg 1 " clk_tb $end
$var reg 1 # done_tb $end
$var reg 32 $ out_tb[31:0] $end
$scope module u1 $end
$var reg 1 % start $end
$var reg 1 & clk $end
$var reg 1 ' done $end
$var reg 32 ( output[31:0] $end
$comment ns is not handled $end
$comment ps is not handled $end
$var reg 5 ) counter1[4:0] $end
$var reg 5 * counter2[4:0] $end
$var reg 32 + reg_in[31:0] $end
$var reg 32 , reg_out[31:0] $end
$var reg 8 - counter3[7:0] $end
$var reg 1 . done1 $end
$var reg 1 / start1 $end
$scope module a1 $end
$var reg 1 0 clk $end
$var reg 5 1 src_addr[4:0] $end
$var reg 5 2 dest_addr[4:0] $end
$var reg 32 3 register_in[31:0] $end
$var reg 32 4 register_out[31:0] $end
$var reg 1 5 regw $end
$comment resgister is not handled $end
$upscope $end
$upscope $end
$enddefinitions $end
#0
0!
1"
0#
b11111111111111111111111111111111 $
0%
1&
0'
b11111111111111111111111111111111 (
b00000 )
b00000 *
b00000000000000000000000000000000 +
b00000000000000000000000000000000 ,
b00000000 -
0.
0/
10
b00000 1
b00000 2
b00000000000000000000000000000000 3
b11111111111111111111111111111111 4
05
#10000000
1!
0"
1%
0&
00
15
#20000000
1"
b00000000000000000000000000000000 $
1&
b00000000000000000000000000000000 (
1/
10
b00000000000000000000000000000000 4
#30000000
0"
0&
00
#40000000
1"
1&
10
#50000000
0"
0&
00
#60000000
1"
1&
b00001 *
b00000001 -
10
b00001 2
#70000000
0"
0&
00
#80000000
1"
1&
b00010 *
b00000001000000010000000100000001 +
b00000010 -
10
b00010 2
b00000001000000010000000100000001 3
#90000000
0"
0&
00
#100000000
1"
1&
b00011 *
b00000010000000100000001000000010 +
b00000011 -
10
b00011 2
b00000010000000100000001000000010 3
#110000000
0"
0&
00
#120000000
1"
1&
b00100 *
b00000011000000110000001100000011 +
b00000100 -
10
b00100 2
b00000011000000110000001100000011 3
#130000000
0"
0&
00
#140000000
1"
1&
b00101 *
b00000100000001000000010000000100 +
b00000101 -
10
b00101 2
b00000100000001000000010000000100 3
#150000000
0"
0&
00
#160000000
1"
1&
b00110 *
b00000101000001010000010100000101 +
b00000110 -
10
b00110 2
b00000101000001010000010100000101 3
#170000000
0"
0&
00
#180000000
1"
1&
b00111 *
b00000110000001100000011000000110 +
b00000111 -
10
b00111 2
b00000110000001100000011000000110 3
#190000000
0"
0&
00
#200000000
1"
1&
b01000 *
b00000111000001110000011100000111 +
b00001000 -
10
b01000 2
b00000111000001110000011100000111 3
#210000000
0"
0&
00
#220000000
1"
1&
b01001 *
b00001000000010000000100000001000 +
b00001001 -
10
b01001 2
b00001000000010000000100000001000 3
#230000000
0"
0&
00
#240000000
1"
1&
b01010 *
b00001001000010010000100100001001 +
b00001010 -
10
b01010 2
b00001001000010010000100100001001 3
#250000000
0"
0&
00
#260000000
1"
1&
b01011 *
b00001010000010100000101000001010 +
b00001011 -
10
b01011 2
b00001010000010100000101000001010 3
#270000000
0"
0&
00
#280000000
1"
1&
b01100 *
b00001011000010110000101100001011 +
b00001100 -
10
b01100 2
b00001011000010110000101100001011 3
#290000000
0"
0&
00
#300000000
1"
1&
b01101 *
b00001100000011000000110000001100 +
b00001101 -
10
b01101 2
b00001100000011000000110000001100 3
#310000000
0"
0&
00
#320000000
1"
1&
b01110 *
b00001101000011010000110100001101 +
b00001110 -
10
b01110 2
b00001101000011010000110100001101 3
#330000000
0"
0&
00
#340000000
1"
1&
b01111 *
b00001110000011100000111000001110 +
b00001111 -
10
b01111 2
b00001110000011100000111000001110 3
#350000000
0"
0&
00
#360000000
1"
1&
b00000 *
1.
0/
10
b00000 2
#370000000
0"
0&
00
#380000000
1"
b00001110000011100000111000001110 $
1&
b00001110000011100000111000001110 (
10
b00001110000011100000111000001110 4
#390000000
0"
0&
00
#400000000
1"
b00000000000000000000000000000000 $
1&
b00000000000000000000000000000000 (
b00001 )
10
b00001 1
b00000000000000000000000000000000 4
#410000000
0"
0&
00
#420000000
1"
b00000001000000010000000100000001 $
1&
b00000001000000010000000100000001 (
b00010 )
10
b00010 1
b00000001000000010000000100000001 4
#430000000
0"
0&
00
#440000000
1"
b00000010000000100000001000000010 $
1&
b00000010000000100000001000000010 (
b00011 )
10
b00011 1
b00000010000000100000001000000010 4
#450000000
0"
0&
00
#460000000
1"
b00000011000000110000001100000011 $
1&
b00000011000000110000001100000011 (
b00100 )
10
b00100 1
b00000011000000110000001100000011 4
#470000000
0"
0&
00
#480000000
1"
b00000100000001000000010000000100 $
1&
b00000100000001000000010000000100 (
b00101 )
10
b00101 1
b00000100000001000000010000000100 4
#490000000
0"
0&
00
#500000000
1"
b00000101000001010000010100000101 $
1&
b00000101000001010000010100000101 (
b00110 )
10
b00110 1
b00000101000001010000010100000101 4
#510000000
0"
0&
00
#520000000
1"
b00000110000001100000011000000110 $
1&
b00000110000001100000011000000110 (
b00111 )
10
b00111 1
b00000110000001100000011000000110 4
#530000000
0"
0&
00
#540000000
1"
b00000111000001110000011100000111 $
1&
b00000111000001110000011100000111 (
b01000 )
10
b01000 1
b00000111000001110000011100000111 4
#550000000
0"
0&
00
#560000000
1"
b00001000000010000000100000001000 $
1&
b00001000000010000000100000001000 (
b01001 )
10
b01001 1
b00001000000010000000100000001000 4
#570000000
0"
0&
00
#580000000
1"
b00001001000010010000100100001001 $
1&
b00001001000010010000100100001001 (
b01010 )
10
b01010 1
b00001001000010010000100100001001 4
#590000000
0"
0&
00
#600000000
1"
b00001010000010100000101000001010 $
1&
b00001010000010100000101000001010 (
b01011 )
10
b01011 1
b00001010000010100000101000001010 4
#610000000
0"
0&
00
#620000000
1"
b00001011000010110000101100001011 $
1&
b00001011000010110000101100001011 (
b01100 )
10
b01100 1
b00001011000010110000101100001011 4
#630000000
0"
0&
00
#640000000
1"
b00001100000011000000110000001100 $
1&
b00001100000011000000110000001100 (
b01101 )
10
b01101 1
b00001100000011000000110000001100 4
#650000000
0"
0&
00
#660000000
1"
b00001101000011010000110100001101 $
1&
b00001101000011010000110100001101 (
b01110 )
10
b01110 1
b00001101000011010000110100001101 4
#670000000
0"
0&
00
#680000000
1"
b00001110000011100000111000001110 $
1&
b00001110000011100000111000001110 (
b01111 )
10
b01111 1
b00001110000011100000111000001110 4
