vhdl/UART_New/uart.vcd
$date
  Fri Jul 07 01:19:57 2017
$end
$version
  GHDL v0
$end
$timescale
  1 fs
$end
$var reg 1 ! r_clock $end
$var reg 1 " r_tx_dv $end
$var reg 8 # r_tx_byte[7:0] $end
$var reg 1 $ w_tx_serial $end
$var reg 1 % w_tx_done $end
$var reg 1 & w_rx_dv $end
$var reg 8 ' w_rx_byte[7:0] $end
$var reg 1 ( r_rx_serial $end
$scope module uart_tx_inst $end
$var reg 1 ) i_clk $end
$var reg 1 * i_tx_dv $end
$var reg 8 + i_tx_byte[7:0] $end
$var reg 1 , o_tx_active $end
$var reg 1 - o_tx_serial $end
$var reg 1 . o_tx_done $end
$comment r_sm_main is not handled $end
$var integer 32 / r_clk_count $end
$var integer 32 0 r_bit_index $end
$var reg 8 1 r_tx_data[7:0] $end
$var reg 1 2 r_tx_done $end
$upscope $end
$scope module uart_rx_inst $end
$var reg 1 3 i_clk $end
$var reg 1 4 i_rx_serial $end
$var reg 1 5 o_rx_dv $end
$var reg 8 6 o_rx_byte[7:0] $end
$comment r_sm_main is not handled $end
$var reg 1 7 r_rx_data_r $end
$var reg 1 8 r_rx_data $end
$var integer 32 9 r_clk_count $end
$var integer 32 : r_bit_index $end
$var reg 8 ; r_rx_byte[7:0] $end
$var reg 1 < r_rx_dv $end
$upscope $end
$enddefinitions $end
#0
0!
0"
b00000000 #
U$
0%
0&
b00000000 '
1(
0)
0*
b00000000 +
U,
U-
0.
b0 /
b0 0
b00000000 1
02
03
14
05
b00000000 6
07
08
b0 9
b0 :
b00000000 ;
0<
#50000000
1!
1$
1)
0,
1-
13
17
#100000000
0!
0)
03
#150000000
1!
1"
b10101011 #
1)
1*
b10101011 +
13
18
b1 9
#200000000
0!
0)
03
#250000000
1!
0"
1)
0*
b10101011 1
13
b10 9
#300000000
0!
0)
03
#350000000
1!
0$
1)
1,
0-
b1 /
13
b11 9
#400000000
0!
0)
03
#450000000
1!
1)
b10 /
13
b100 9
#500000000
0!
0)
03
#550000000
1!
1)
b11 /
13
b101 9
#600000000
0!
0)
03
#650000000
1!
1)
b100 /
13
b110 9
#700000000
0!
0)
03
#750000000
1!
1)
b101 /
13
b111 9
#800000000
0!
0)
03
#850000000
1!
1)
b110 /
13
b1000 9
#900000000
0!
0)
03
#950000000
1!
1)
b111 /
13
b1001 9
#1000000000
0!
0)
03
#1050000000
1!
1)
b1000 /
13
b1010 9
#1100000000
0!
0)
03
#1150000000
1!
1)
b1001 /
13
b1011 9
#1200000000
0!
0)
03
#1250000000
1!
1)
b1010 /
13
b1100 9
#1300000000
0!
0)
03
#1350000000
1!
1)
b1011 /
13
b1101 9
#1400000000
0!
0)
03
#1450000000
1!
1)
b1100 /
13
b1110 9
#1500000000
0!
0)
03
#1550000000
1!
1)
b1101 /
13
b1111 9
#1600000000
0!
0)
03
#1650000000
1!
1)
b1110 /
13
b10000 9
#1700000000
0!
0)
03
#1750000000
1!
1)
b1111 /
13
b10001 9
#1800000000
0!
0)
03
#1850000000
1!
1)
b10000 /
13
b10010 9
#1900000000
0!
0)
03
#1950000000
1!
1)
b10001 /
13
b10011 9
#2000000000
0!
0)
03
#2050000000
1!
1)
b10010 /
13
b10100 9
#2100000000
0!
0)
03
#2150000000
1!
1)
b10011 /
13
b10101 9
#2200000000
0!
0)
03
#2250000000
1!
1)
b10100 /
13
b10110 9
#2300000000
0!
0)
03
#2350000000
1!
1)
b10101 /
13
b10111 9
#2400000000
0!
0)
03
#2450000000
1!
1)
b10110 /
13
b11000 9
#2500000000
0!
0)
03
#2550000000
1!
1)
b10111 /
13
b11001 9
#2600000000
0!
0)
03
#2650000000
1!
1)
b11000 /
13
b11010 9
#2700000000
0!
0)
03
#2750000000
1!
1)
b11001 /
13
b11011 9
#2800000000
0!
0)
03
#2850000000
1!
1)
b11010 /
13
b11100 9
#2900000000
0!
0)
03
#2950000000
1!
1)
b11011 /
13
b11101 9
#3000000000
0!
0)
03
#3050000000
1!
1)
b11100 /
13
b11110 9
#3100000000
0!
0)
03
#3150000000
1!
1)
b11101 /
13
b11111 9
#3200000000
0!
0)
03
#3250000000
1!
1)
b11110 /
13
b100000 9
#3300000000
0!
0)
03
#3350000000
1!
1)
b11111 /
13
b100001 9
#3400000000
0!
0)
03
#3450000000
1!
1)
b100000 /
13
b100010 9
#3500000000
0!
0)
03
#3550000000
1!
1)
b100001 /
13
b100011 9
#3600000000
0!
0)
03
#3650000000
1!
1)
b100010 /
13
b100100 9
#3700000000
0!
0)
03
#3750000000
1!
1)
b100011 /
13
b100101 9
#3800000000
0!
0)
03
#3850000000
1!
1)
b100100 /
13
b100110 9
#3900000000
0!
0)
03
#3950000000
1!
1)
b100101 /
13
b100111 9
#4000000000
0!
0)
03
#4050000000
1!
1)
b100110 /
13
b101000 9
#4100000000
0!
0)
03
#4150000000
1!
1)
b100111 /
13
b101001 9
#4200000000
0!
0)
03
#4250000000
1!
1)
b101000 /
13
b101010 9
#4300000000
0!
0)
03
#4350000000
1!
1)
b101001 /
13
b101011 9
#4400000000
0!
0)
03
#4450000000
1!
1)
b101010 /
13
#4500000000
0!
0)
03
#4550000000
1!
1)
b101011 /
13
b0 9
#4600000000
0!
0)
03
#4650000000
1!
1)
b101100 /
13
#4700000000
0!
0)
03
#4750000000
1!
1)
b101101 /
13
#4800000000
0!
0)
03
#4850000000
1!
1)
b101110 /
13
#4900000000
0!
0)
03
#4950000000
1!
1)
b101111 /
13
#5000000000
0!
0)
03
#5050000000
1!
1)
b110000 /
13
#5100000000
0!
0)
03
#5150000000
1!
1)
b110001 /
13
#5200000000
0!
0)
03
#5250000000
1!
1)
b110010 /
13
#5300000000
0!
0)
03
#5350000000
1!
1)
b110011 /
13
#5400000000
0!
0)
03
#5450000000
1!
1)
b110100 /
13
#5500000000
0!
0)
03
#5550000000
1!
1)
b110101 /
13
#5600000000
0!
0)
03
#5650000000
1!
1)
b110110 /
13
#5700000000
0!
0)
03
#5750000000
1!
1)
b110111 /
13
#5800000000
0!
0)
03
#5850000000
1!
1)
b111000 /
13
#5900000000
0!
0)
03
#5950000000
1!
1)
b111001 /
13
#6000000000
0!
0)
03
#6050000000
1!
1)
b111010 /
13
#6100000000
0!
0)
03
#6150000000
1!
1)
b111011 /
13
#6200000000
0!
0)
03
#6250000000
1!
1)
b111100 /
13
#6300000000
0!
0)
03
#6350000000
1!
1)
b111101 /
13
#6400000000
0!
0)
03
#6450000000
1!
1)
b111110 /
13
#6500000000
0!
0)
03
#6550000000
1!
1)
b111111 /
13
#6600000000
0!
0)
03
#6650000000
1!
1)
b1000000 /
13
#6700000000
0!
0)
03
#6750000000
1!
1)
b1000001 /
13
#6800000000
0!
0)
03
#6850000000
1!
1)
b1000010 /
13
#6900000000
0!
0)
03
#6950000000
1!
1)
b1000011 /
13
#7000000000
0!
0)
03
#7050000000
1!
1)
b1000100 /
13
#7100000000
0!
0)
03
#7150000000
1!
1)
b1000101 /
13
#7200000000
0!
0)
03
#7250000000
1!
1)
b1000110 /
13
#7300000000
0!
0)
03
#7350000000
1!
1)
b1000111 /
13
#7400000000
0!
0)
03
#7450000000
1!
1)
b1001000 /
13
#7500000000
0!
0)
03
#7550000000
1!
1)
b1001001 /
13
#7600000000
0!
0)
03
#7650000000
1!
1)
b1001010 /
13
#7700000000
0!
0)
03
#7750000000
1!
1)
b1001011 /
13
#7800000000
0!
0)
03
#7850000000
1!
1)
b1001100 /
13
#7900000000
0!
0)
03
#7950000000
1!
1)
b1001101 /
13
#8000000000
0!
0)
03
#8050000000
1!
1)
b1001110 /
13
#8100000000
0!
0)
03
#8150000000
1!
1)
b1001111 /
13
#8200000000
0!
0)
03
#8250000000
1!
1)
b1010000 /
13
#8300000000
0!
0)
03
#8350000000
1!
1)
b1010001 /
13
#8400000000
0!
0)
03
#8450000000
1!
1)
b1010010 /
13
#8500000000
0!
0)
03
#8550000000
1!
1)
b1010011 /
13
#8600000000
0!
0)
03
#8650000000
1!
1)
b1010100 /
13
#8700000000
0!
0)
03
#8750000000
1!
1)
b1010101 /
13
#8800000000
0!
0)
03
#8850000000
1!
1)
b1010110 /
13
#8900000000
0!
0)
03
#8950000000
1!
1)
b0 /
13
#9000000000
0!
0)
03
#9050000000
1!
1$
1)
1-
b1 /
13
#9100000000
0!
0)
03
#9150000000
1!
1)
b10 /
13
#9200000000
0!
0)
03
#9250000000
1!
1)
b11 /
13
#9300000000
0!
0)
03
#9350000000
1!
1)
b100 /
13
#9400000000
0!
0)
03
#9450000000
1!
1)
b101 /
13
#9500000000
0!
0)
03
#9550000000
1!
1)
b110 /
13
#9600000000
0!
0)
03
#9650000000
1!
1)
b111 /
13
#9700000000
0!
0)
03
#9750000000
1!
1)
b1000 /
13
#9800000000
0!
0)
03
#9850000000
1!
1)
b1001 /
13
#9900000000
0!
0)
03
#9950000000
1!
1)
b1010 /
13
#10000000000
0!
0)
03
#10050000000
1!
1)
b1011 /
13
#10100000000
0!
0)
03
#10150000000
1!
1)
b1100 /
13
#10200000000
0!
0)
03
#10250000000
1!
1)
b1101 /
13
#10300000000
0!
0)
03
#10350000000
1!
1)
b1110 /
13
#10400000000
0!
0)
03
#10450000000
1!
1)
b1111 /
13
#10500000000
0!
0)
03
#10550000000
1!
1)
b10000 /
13
#10600000000
0!
0)
03
#10650000000
1!
1)
b10001 /
13
#10700000000
0!
0)
03
#10750000000
1!
1)
b10010 /
13
#10800000000
0!
0)
03
#10850000000
1!
1)
b10011 /
13
#10900000000
0!
0)
03
#10950000000
1!
1)
b10100 /
13
#11000000000
0!
0)
03
#11050000000
1!
1)
b10101 /
13
#11100000000
0!
0)
03
#11150000000
1!
1)
b10110 /
13
#11200000000
0!
0)
03
#11250000000
1!
1)
b10111 /
13
#11300000000
0!
0)
03
#11350000000
1!
1)
b11000 /
13
#11400000000
0!
0)
03
#11450000000
1!
1)
b11001 /
13
#11500000000
0!
0)
03
#11550000000
1!
1)
b11010 /
13
#11600000000
0!
0)
03
#11650000000
1!
1)
b11011 /
13
#11700000000
0!
0)
03
#11750000000
1!
1)
b11100 /
13
#11800000000
0!
0)
03
#11850000000
1!
1)
b11101 /
13
#11900000000
0!
0)
03
#11950000000
1!
1)
b11110 /
13
#12000000000
0!
0)
03
#12050000000
1!
1)
b11111 /
13
#12100000000
0!
0)
03
#12150000000
1!
1)
b100000 /
13
#12200000000
0!
0)
03
#12250000000
1!
1)
b100001 /
13
#12300000000
0!
0)
03
#12350000000
1!
1)
b100010 /
13
#12400000000
0!
0)
03
#12450000000
1!
1)
b100011 /
13
#12500000000
0!
0)
03
#12550000000
1!
1)
b100100 /
13
#12600000000
0!
0)
03
#12650000000
1!
1)
b100101 /
13
#12700000000
0!
0)
03
#12750000000
1!
1)
b100110 /
13
#12800000000
0!
0)
03
#12850000000
1!
1)
b100111 /
13
#12900000000
0!
0)
03
#12950000000
1!
1)
b101000 /
13
#13000000000
0!
0)
03
#13050000000
1!
1)
b101001 /
13
#13100000000
0!
0)
03
#13150000000
1!
1)
b101010 /
13
#13200000000
0!
0)
03
#13250000000
1!
1)
b101011 /
13
#13300000000
0!
0)
03
#13350000000
1!
1)
b101100 /
13
#13400000000
0!
0)
03
#13450000000
1!
1)
b101101 /
13
#13500000000
0!
0)
03
#13550000000
1!
1)
b101110 /
13
#13600000000
0!
0)
03
#13650000000
1!
1)
b101111 /
13
#13700000000
0!
0)
03
#13750000000
1!
1)
b110000 /
13
#13800000000
0!
0)
03
#13850000000
1!
1)
b110001 /
13
#13900000000
0!
0)
03
#13950000000
1!
1)
b110010 /
13
#14000000000
0!
0)
03
#14050000000
1!
1)
b110011 /
13
#14100000000
0!
0)
03
#14150000000
1!
1)
b110100 /
13
#14200000000
0!
0)
03
#14250000000
1!
1)
b110101 /
13
#14300000000
0!
0)
03
#14350000000
1!
1)
b110110 /
13
#14400000000
0!
0)
03
#14450000000
1!
1)
b110111 /
13
#14500000000
0!
0)
03
#14550000000
1!
1)
b111000 /
13
#14600000000
0!
0)
03
#14650000000
1!
1)
b111001 /
13
#14700000000
0!
0)
03
#14750000000
1!
1)
b111010 /
13
#14800000000
0!
0)
03
#14850000000
1!
1)
b111011 /
13
#14900000000
0!
0)
03
#14950000000
1!
1)
b111100 /
13
#15000000000
0!
0)
03
#15050000000
1!
1)
b111101 /
13
#15100000000
0!
0)
03
#15150000000
1!
1)
b111110 /
13
#15200000000
0!
0)
03
#15250000000
1!
1)
b111111 /
13
#15300000000
0!
0)
03
#15350000000
1!
1)
b1000000 /
13
#15400000000
0!
0)
03
#15450000000
1!
1)
b1000001 /
13
#15500000000
0!
0)
03
#15550000000
1!
1)
b1000010 /
13
#15600000000
0!
0)
03
#15650000000
1!
1)
b1000011 /
13
#15700000000
0!
0)
03
#15750000000
1!
1)
b1000100 /
13
#15800000000
0!
0)
03
#15850000000
1!
1)
b1000101 /
13
#15900000000
0!
0)
03
#15950000000
1!
1)
b1000110 /
13
#16000000000
0!
0)
03
#16050000000
1!
1)
b1000111 /
13
#16100000000
0!
0)
03
#16150000000
1!
1)
b1001000 /
13
#16200000000
0!
0)
03
#16250000000
1!
1)
b1001001 /
13
#16300000000
0!
0)
03
#16350000000
1!
1)
b1001010 /
13
#16400000000
0!
0)
03
#16450000000
1!
1)
b1001011 /
13
#16500000000
0!
0)
03
#16550000000
1!
1)
b1001100 /
13
#16600000000
0!
0)
03
#16650000000
1!
1)
b1001101 /
13
#16700000000
0!
0)
03
#16750000000
1!
1)
b1001110 /
13
#16800000000
0!
0)
03
#16850000000
1!
1)
b1001111 /
13
#16900000000
0!
0)
03
#16950000000
1!
1)
b1010000 /
13
#17000000000
0!
0)
03
#17050000000
1!
1)
b1010001 /
13
#17100000000
0!
0)
03
#17150000000
1!
1)
b1010010 /
13
#17200000000
0!
0)
03
#17250000000
1!
1)
b1010011 /
13
#17300000000
0!
0)
03
#17350000000
1!
1)
b1010100 /
13
#17400000000
0!
0)
03
#17450000000
1!
1)
b1010101 /
13
#17500000000
0!
0)
03
#17550000000
1!
1)
b1010110 /
13
#17600000000
0!
0)
03
#17650000000
1!
1)
b0 /
b1 0
13
#17700000000
0!
0)
03
#17750000000
1!
1)
b1 /
13
#17800000000
0!
0)
03
#17850000000
1!
1)
b10 /
13
#17900000000
0!
0)
03
#17950000000
1!
1)
b11 /
13
#18000000000
0!
0)
03
#18050000000
1!
1)
b100 /
13
#18100000000
0!
0)
03
#18150000000
1!
1)
b101 /
13
#18200000000
0!
0)
03
#18250000000
1!
1)
b110 /
13
#18300000000
0!
0)
03
#18350000000
1!
1)
b111 /
13
#18400000000
0!
0)
03
#18450000000
1!
1)
b1000 /
13
#18500000000
0!
0)
03
#18550000000
1!
1)
b1001 /
13
#18600000000
0!
0)
03
#18650000000
1!
1)
b1010 /
13
#18700000000
0!
0)
03
#18750000000
1!
1)
b1011 /
13
#18800000000
0!
0)
03
#18850000000
1!
1)
b1100 /
13
#18900000000
0!
0)
03
#18950000000
1!
1)
b1101 /
13
#19000000000
0!
0)
03
#19050000000
1!
1)
b1110 /
13
#19100000000
0!
0)
03
#19150000000
1!
1)
b1111 /
13
#19200000000
0!
0)
03
#19250000000
1!
1)
b10000 /
13
#19300000000
0!
0)
03
#19350000000
1!
1)
b10001 /
13
#19400000000
0!
0)
03
#19450000000
1!
1)
b10010 /
13
#19500000000
0!
0)
03
#19550000000
1!
1)
b10011 /
13
#19600000000
0!
0)
03
#19650000000
1!
1)
b10100 /
13
#19700000000
0!
0)
03
#19750000000
1!
1)
b10101 /
13
#19800000000
0!
0)
03
#19850000000
1!
1)
b10110 /
13
#19900000000
0!
0)
03
#19950000000
1!
1)
b10111 /
13
#20000000000
0!
0)
03
#20050000000
1!
1)
b11000 /
13
#20100000000
0!
0)
03
#20150000000
1!
1)
b11001 /
13
#20200000000
0!
0)
03
#20250000000
1!
1)
b11010 /
13
#20300000000
0!
0)
03
#20350000000
1!
1)
b11011 /
13
#20400000000
0!
0)
03
#20450000000
1!
1)
b11100 /
13
#20500000000
0!
0)
03
#20550000000
1!
1)
b11101 /
13
#20600000000
0!
0)
03
#20650000000
1!
1)
b11110 /
13
#20700000000
0!
0)
03
#20750000000
1!
1)
b11111 /
13
#20800000000
0!
0)
03
#20850000000
1!
1)
b100000 /
13
#20900000000
0!
0)
03
#20950000000
1!
1)
b100001 /
13
#21000000000
0!
0)
03
#21050000000
1!
1)
b100010 /
13
#21100000000
0!
0)
03
#21150000000
1!
1)
b100011 /
13
#21200000000
0!
0)
03
#21250000000
1!
1)
b100100 /
13
#21300000000
0!
0)
03
#21350000000
1!
1)
b100101 /
13
#21400000000
0!
0)
03
#21450000000
1!
1)
b100110 /
13
#21500000000
0!
0)
03
#21550000000
1!
1)
b100111 /
13
#21600000000
0!
0)
03
#21650000000
1!
1)
b101000 /
13
#21700000000
0!
0)
03
#21750000000
1!
1)
b101001 /
13
#21800000000
0!
0)
03
#21850000000
1!
1)
b101010 /
13
#21900000000
0!
0)
03
#21950000000
1!
1)
b101011 /
13
#22000000000
0!
0)
03
#22050000000
1!
1)
b101100 /
13
#22100000000
0!
0)
03
#22150000000
1!
1)
b101101 /
13
#22200000000
0!
0)
03
#22250000000
1!
1)
b101110 /
13
#22300000000
0!
0)
03
#22350000000
1!
1)
b101111 /
13
#22400000000
0!
0)
03
#22450000000
1!
1)
b110000 /
13
#22500000000
0!
0)
03
#22550000000
1!
1)
b110001 /
13
#22600000000
0!
0)
03
#22650000000
1!
1)
b110010 /
13
#22700000000
0!
0)
03
#22750000000
1!
1)
b110011 /
13
#22800000000
0!
0)
03
#22850000000
1!
1)
b110100 /
13
#22900000000
0!
0)
03
#22950000000
1!
1)
b110101 /
13
#23000000000
0!
0)
03
#23050000000
1!
1)
b110110 /
13
#23100000000
0!
0)
03
#23150000000
1!
1)
b110111 /
13
#23200000000
0!
0)
03
#23250000000
1!
1)
b111000 /
13
#23300000000
0!
0)
03
#23350000000
1!
1)
b111001 /
13
#23400000000
0!
0)
03
#23450000000
1!
1)
b111010 /
13
#23500000000
0!
0)
03
#23550000000
1!
1)
b111011 /
13
#23600000000
0!
0)
03
#23650000000
1!
1)
b111100 /
13
#23700000000
0!
0)
03
#23750000000
1!
1)
b111101 /
13
#23800000000
0!
0)
03
#23850000000
1!
1)
b111110 /
13
#23900000000
0!
0)
03
#23950000000
1!
1)
b111111 /
13
#24000000000
0!
0)
03
#24050000000
1!
1)
b1000000 /
13
#24100000000
0!
0)
03
#24150000000
1!
1)
b1000001 /
13
#24200000000
0!
0)
03
#24250000000
1!
1)
b1000010 /
13
#24300000000
0!
0)
03
#24350000000
1!
1)
b1000011 /
13
#24400000000
0!
0)
03
#24450000000
1!
1)
b1000100 /
13
#24500000000
0!
0)
03
#24550000000
1!
1)
b1000101 /
13
#24600000000
0!
0)
03
#24650000000
1!
1)
b1000110 /
13
#24700000000
0!
0)
03
#24750000000
1!
1)
b1000111 /
13
#24800000000
0!
0)
03
#24850000000
1!
1)
b1001000 /
13
#24900000000
0!
0)
03
#24950000000
1!
1)
b1001001 /
13
#25000000000
0!
0)
03
#25050000000
1!
1)
b1001010 /
13
#25100000000
0!
0)
03
#25150000000
1!
1)
b1001011 /
13
#25200000000
0!
0)
03
#25250000000
1!
1)
b1001100 /
13
#25300000000
0!
0)
03
#25350000000
1!
1)
b1001101 /
13
#25400000000
0!
0)
03
#25450000000
1!
1)
b1001110 /
13
#25500000000
0!
0)
03
#25550000000
1!
1)
b1001111 /
13
#25600000000
0!
0)
03
#25650000000
1!
1)
b1010000 /
13
#25700000000
0!
0)
03
#25750000000
1!
1)
b1010001 /
13
#25800000000
0!
0)
03
#25850000000
1!
1)
b1010010 /
13
#25900000000
0!
0)
03
#25950000000
1!
1)
b1010011 /
13
#26000000000
0!
0)
03
#26050000000
1!
1)
b1010100 /
13
#26100000000
0!
0)
03
#26150000000
1!
1)
b1010101 /
13
#26200000000
0!
0)
03
#26250000000
1!
1)
b1010110 /
13
#26300000000
0!
0)
03
#26350000000
1!
1)
b0 /
b10 0
13
#26400000000
0!
0)
03
#26450000000
1!
0$
1)
0-
b1 /
13
#26500000000
0!
0)
03
#26550000000
1!
1)
b10 /
13
#26600000000
0!
0)
03
#26650000000
1!
1)
b11 /
13
#26700000000
0!
0)
03
#26750000000
1!
1)
b100 /
13
#26800000000
0!
0)
03
#26850000000
1!
1)
b101 /
13
#26900000000
0!
0)
03
#26950000000
1!
1)
b110 /
13
#27000000000
0!
0)
03
#27050000000
1!
1)
b111 /
13
#27100000000
0!
0)
03
#27150000000
1!
1)
b1000 /
13
#27200000000
0!
0)
03
#27250000000
1!
1)
b1001 /
13
#27300000000
0!
0)
03
#27350000000
1!
1)
b1010 /
13
#27400000000
0!
0)
03
#27450000000
1!
1)
b1011 /
13
#27500000000
0!
0)
03
#27550000000
1!
1)
b1100 /
13
#27600000000
0!
0)
03
#27650000000
1!
1)
b1101 /
13
#27700000000
0!
0)
03
#27750000000
1!
1)
b1110 /
13
#27800000000
0!
0)
03
#27850000000
1!
1)
b1111 /
13
#27900000000
0!
0)
03
#27950000000
1!
1)
b10000 /
13
#28000000000
0!
0)
03
#28050000000
1!
1)
b10001 /
13
#28100000000
0!
0)
03
#28150000000
1!
1)
b10010 /
13
#28200000000
0!
0)
03
#28250000000
1!
1)
b10011 /
13
#28300000000
0!
0)
03
#28350000000
1!
1)
b10100 /
13
#28400000000
0!
0)
03
#28450000000
1!
1)
b10101 /
13
#28500000000
0!
0)
03
#28550000000
1!
1)
b10110 /
13
#28600000000
0!
0)
03
#28650000000
1!
1)
b10111 /
13
#28700000000
0!
0)
03
#28750000000
1!
1)
b11000 /
13
#28800000000
0!
0)
03
#28850000000
1!
1)
b11001 /
13
#28900000000
0!
0)
03
#28950000000
1!
1)
b11010 /
13
#29000000000
0!
0)
03
#29050000000
1!
1)
b11011 /
13
#29100000000
0!
0)
03
#29150000000
1!
1)
b11100 /
13
#29200000000
0!
0)
03
#29250000000
1!
1)
b11101 /
13
#29300000000
0!
0)
03
#29350000000
1!
1)
b11110 /
13
#29400000000
0!
0)
03
#29450000000
1!
1)
b11111 /
13
#29500000000
0!
0)
03
#29550000000
1!
1)
b100000 /
13
#29600000000
0!
0)
03
#29650000000
1!
1)
b100001 /
13
#29700000000
0!
0)
03
#29750000000
1!
1)
b100010 /
13
#29800000000
0!
0)
03
#29850000000
1!
1)
b100011 /
13
#29900000000
0!
0)
03
#29950000000
1!
1)
b100100 /
13
#30000000000
0!
0)
03
#30050000000
1!
1)
b100101 /
13
#30100000000
0!
0)
03
#30150000000
1!
1)
b100110 /
13
#30200000000
0!
0)
03
#30250000000
1!
1)
b100111 /
13
#30300000000
0!
0)
03
#30350000000
1!
1)
b101000 /
13
#30400000000
0!
0)
03
#30450000000
1!
1)
b101001 /
13
#30500000000
0!
0)
03
#30550000000
1!
1)
b101010 /
13
#30600000000
0!
0)
03
#30650000000
1!
1)
b101011 /
13
#30700000000
0!
0)
03
#30750000000
1!
1)
b101100 /
13
#30800000000
0!
0)
03
#30850000000
1!
1)
b101101 /
13
#30900000000
0!
0)
03
#30950000000
1!
1)
b101110 /
13
#31000000000
0!
0)
03
#31050000000
1!
1)
b101111 /
13
#31100000000
0!
0)
03
#31150000000
1!
1)
b110000 /
13
#31200000000
0!
0)
03
#31250000000
1!
1)
b110001 /
13
#31300000000
0!
0)
03
#31350000000
1!
1)
b110010 /
13
#31400000000
0!
0)
03
#31450000000
1!
1)
b110011 /
13
#31500000000
0!
0)
03
#31550000000
1!
1)
b110100 /
13
#31600000000
0!
0)
03
#31650000000
1!
1)
b110101 /
13
#31700000000
0!
0)
03
#31750000000
1!
1)
b110110 /
13
#31800000000
0!
0)
03
#31850000000
1!
1)
b110111 /
13
#31900000000
0!
0)
03
#31950000000
1!
1)
b111000 /
13
#32000000000
0!
0)
03
#32050000000
1!
1)
b111001 /
13
#32100000000
0!
0)
03
#32150000000
1!
1)
b111010 /
13
#32200000000
0!
0)
03
#32250000000
1!
1)
b111011 /
13
#32300000000
0!
0)
03
#32350000000
1!
1)
b111100 /
13
#32400000000
0!
0)
03
#32450000000
1!
1)
b111101 /
13
#32500000000
0!
0)
03
#32550000000
1!
1)
b111110 /
13
#32600000000
0!
0)
03
#32650000000
1!
1)
b111111 /
13
#32700000000
0!
0)
03
#32750000000
1!
1)
b1000000 /
13
#32800000000
0!
0)
03
#32850000000
1!
1)
b1000001 /
13
#32900000000
0!
0)
03
#32950000000
1!
1)
b1000010 /
13
#33000000000
0!
0)
03
#33050000000
1!
1)
b1000011 /
13
#33100000000
0!
0)
03
#33150000000
1!
1)
b1000100 /
13
#33200000000
0!
0)
03
#33250000000
1!
1)
b1000101 /
13
#33300000000
0!
0)
03
#33350000000
1!
1)
b1000110 /
13
#33400000000
0!
0)
03
#33450000000
1!
1)
b1000111 /
13
#33500000000
0!
0)
03
#33550000000
1!
1)
b1001000 /
13
#33600000000
0!
0)
03
#33650000000
1!
1)
b1001001 /
13
#33700000000
0!
0)
03
#33750000000
1!
1)
b1001010 /
13
#33800000000
0!
0)
03
#33850000000
1!
1)
b1001011 /
13
#33900000000
0!
0)
03
#33950000000
1!
1)
b1001100 /
13
#34000000000
0!
0)
03
#34050000000
1!
1)
b1001101 /
13
#34100000000
0!
0)
03
#34150000000
1!
1)
b1001110 /
13
#34200000000
0!
0)
03
#34250000000
1!
1)
b1001111 /
13
#34300000000
0!
0)
03
#34350000000
1!
1)
b1010000 /
13
#34400000000
0!
0)
03
#34450000000
1!
1)
b1010001 /
13
#34500000000
0!
0)
03
#34550000000
1!
1)
b1010010 /
13
#34600000000
0!
0)
03
#34650000000
1!
1)
b1010011 /
13
#34700000000
0!
0)
03
#34750000000
1!
1)
b1010100 /
13
#34800000000
0!
0)
03
#34850000000
1!
1)
b1010101 /
13
#34900000000
0!
0)
03
#34950000000
1!
1)
b1010110 /
13
#35000000000
0!
0)
03
#35050000000
1!
1)
b0 /
b11 0
13
#35100000000
0!
0)
03
#35150000000
1!
1$
1)
1-
b1 /
13
#35200000000
0!
0)
03
#35250000000
1!
1)
b10 /
13
#35300000000
0!
0)
03
#35350000000
1!
1)
b11 /
13
#35400000000
0!
0)
03
#35450000000
1!
1)
b100 /
13
#35500000000
0!
0)
03
#35550000000
1!
1)
b101 /
13
#35600000000
0!
0)
03
#35650000000
1!
1)
b110 /
13
#35700000000
0!
0)
03
#35750000000
1!
1)
b111 /
13
#35800000000
0!
0)
03
#35850000000
1!
1)
b1000 /
13
#35900000000
0!
0)
03
#35950000000
1!
1)
b1001 /
13
#36000000000
0!
0)
03
#36050000000
1!
1)
b1010 /
13
#36100000000
0!
0)
03
#36150000000
1!
1)
b1011 /
13
#36200000000
0!
0)
03
#36250000000
1!
1)
b1100 /
13
#36300000000
0!
0)
03
#36350000000
1!
1)
b1101 /
13
#36400000000
0!
0)
03
#36450000000
1!
1)
b1110 /
13
#36500000000
0!
0)
03
#36550000000
1!
1)
b1111 /
13
#36600000000
0!
0)
03
#36650000000
1!
1)
b10000 /
13
#36700000000
0!
0)
03
#36750000000
1!
1)
b10001 /
13
#36800000000
0!
0)
03
#36850000000
1!
1)
b10010 /
13
#36900000000
0!
0)
03
#36950000000
1!
1)
b10011 /
13
#37000000000
0!
0)
03
#37050000000
1!
1)
b10100 /
13
#37100000000
0!
0)
03
#37150000000
1!
1)
b10101 /
13
#37200000000
0!
0)
03
#37250000000
1!
1)
b10110 /
13
#37300000000
0!
0)
03
#37350000000
1!
1)
b10111 /
13
#37400000000
0!
0)
03
#37450000000
1!
1)
b11000 /
13
#37500000000
0!
0)
03
#37550000000
1!
1)
b11001 /
13
#37600000000
0!
0)
03
#37650000000
1!
1)
b11010 /
13
#37700000000
0!
0)
03
#37750000000
1!
1)
b11011 /
13
#37800000000
0!
0)
03
#37850000000
1!
1)
b11100 /
13
#37900000000
0!
0)
03
#37950000000
1!
1)
b11101 /
13
#38000000000
0!
0)
03
#38050000000
1!
1)
b11110 /
13
#38100000000
0!
0)
03
#38150000000
1!
1)
b11111 /
13
#38200000000
0!
0)
03
#38250000000
1!
1)
b100000 /
13
#38300000000
0!
0)
03
#38350000000
1!
1)
b100001 /
13
#38400000000
0!
0)
03
#38450000000
1!
1)
b100010 /
13
#38500000000
0!
0)
03
#38550000000
1!
1)
b100011 /
13
#38600000000
0!
0)
03
#38650000000
1!
1)
b100100 /
13
#38700000000
0!
0)
03
#38750000000
1!
1)
b100101 /
13
#38800000000
0!
0)
03
#38850000000
1!
1)
b100110 /
13
#38900000000
0!
0)
03
#38950000000
1!
1)
b100111 /
13
#39000000000
0!
0)
03
#39050000000
1!
1)
b101000 /
13
#39100000000
0!
0)
03
#39150000000
1!
1)
b101001 /
13
#39200000000
0!
0)
03
#39250000000
1!
1)
b101010 /
13
#39300000000
0!
0)
03
#39350000000
1!
1)
b101011 /
13
#39400000000
0!
0)
03
#39450000000
1!
1)
b101100 /
13
#39500000000
0!
0)
03
#39550000000
1!
1)
b101101 /
13
#39600000000
0!
0)
03
#39650000000
1!
1)
b101110 /
13
#39700000000
0!
0)
03
#39750000000
1!
1)
b101111 /
13
#39800000000
0!
0)
03
#39850000000
1!
1)
b110000 /
13
#39900000000
0!
0)
03
#39950000000
1!
1)
b110001 /
13
#40000000000
0!
0)
03
#40050000000
1!
1)
b110010 /
13
#40100000000
0!
0)
03
#40150000000
1!
1)
b110011 /
13
#40200000000
0!
0)
03
#40250000000
1!
1)
b110100 /
13
#40300000000
0!
0)
03
#40350000000
1!
1)
b110101 /
13
#40400000000
0!
0)
03
#40450000000
1!
1)
b110110 /
13
#40500000000
0!
0)
03
#40550000000
1!
1)
b110111 /
13
#40600000000
0!
0)
03
#40650000000
1!
1)
b111000 /
13
#40700000000
0!
0)
03
