vhdl/MIPS/MIPS.vcd
$date
  Sat Apr 01 17:12:25 2017
$end
$version
  GHDL v0
$end
$timescale
  1 fs
$end
$var reg 1 ! cs $end
$var reg 1 " we $end
$var reg 1 # clk $end
$var reg 32 $ mem_bus[31:0] $end
$var reg 32 % address[31:0] $end
$var reg 32 & addresstb[31:0] $end
$var reg 32 ' address_mux[31:0] $end
$var reg 1 ( rst $end
$var reg 1 ) init $end
$var reg 1 * we_mux $end
$var reg 1 + cs_mux $end
$var reg 1 , we_tb $end
$var reg 1 - cs_tb $end
$scope module cpu $end
$var reg 1 . clk $end
$var reg 1 / rst $end
$var reg 1 0 cs $end
$var reg 1 1 we $end
$var reg 32 2 addr[31:0] $end
$var reg 32 3 mem_bus[31:0] $end
$comment op is not handled $end
$comment opsave is not handled $end
$comment format is not handled $end
$var reg 32 4 instr[31:0] $end
$var reg 32 5 imm_ext[31:0] $end
$var reg 32 6 pc[31:0] $end
$var reg 32 7 npc[31:0] $end
$var reg 32 8 readreg1[31:0] $end
$var reg 32 9 readreg2[31:0] $end
$var reg 32 : reg_in[31:0] $end
$var reg 32 ; alu_ina[31:0] $end
$var reg 32 < alu_inb[31:0] $end
$var reg 32 = alu_result[31:0] $end
$var reg 32 > alu_resut_save[31:0] $end
$var reg 1 ? aluormem $end
$var reg 1 @ regw $end
$var reg 1 A fetchdori $end
$var reg 1 B writing $end
$var reg 1 C regorimm $end
$var reg 1 D regorimm_save $end
$var reg 1 E aluormem_save $end
$var reg 5 F dr[4:0] $end
$var integer 32 G state $end
$var integer 32 H nstate $end
$scope module a1 $end
$var reg 1 I clk $end
$var reg 1 J regw $end
$var reg 5 K dr[4:0] $end
$var reg 5 L sr1[4:0] $end
$var reg 5 M sr2[4:0] $end
$var reg 32 N reg_in[31:0] $end
$var reg 32 O readreg1[31:0] $end
$var reg 32 P readreg2[31:0] $end
$comment regs is not handled $end
$upscope $end
$upscope $end
$scope module mem $end
$var reg 1 Q cs $end
$var reg 1 R we $end
$var reg 1 S clk $end
$var reg 32 T addr[31:0] $end
$var reg 32 U mem_bus[31:0] $end
$comment ram1 is not handled $end
$var reg 32 V output[31:0] $end
$upscope $end
$enddefinitions $end
#0
1!
0"
0#
bUUUUUUUUUUUUUUUUUUUUUUUUUUUUUUUU $
bUUUUUUUUUUUUUUUUUUUUUUUUUUUUUUUU %
bUUUUUUUUUUUUUUUUUUUUUUUUUUUUUUUU &
bUUUUUUUUUUUUUUUUUUUUUUUUUUUUUUUU '
1(
U)
0*
1+
U,
U-
0.
1/
10
01
bUUUUUUUUUUUUUUUUUUUUUUUUUUUUUUUU 2
bUUUUUUUUUUUUUUUUUUUUUUUUUUUUUUUU 3
bUUUUUUUUUUUUUUUUUUUUUUUUUUUUUUUU 4
b0000000000000000UUUUUUUUUUUUUUUU 5
bUUUUUUUUUUUUUUUUUUUUUUUUUUUUUUUU 6
bXXXXXXXXXXXXXXXXXXXXXXXXXXXXXXXX 7
b11111111111111111111111111111111 8
b11111111111111111111111111111111 9
bUUUUUUUUUUUUUUUUUUUUUUUUUUUUUUUU :
b11111111111111111111111111111111 ;
b11111111111111111111111111111111 <
b00000000000000000000000000000000 =
bUUUUUUUUUUUUUUUUUUUUUUUUUUUUUUUU >
0?
0@
1A
0B
0C
0D
0E
bUUUUU F
b0 G
b1 H
0I
0J
bUUUUU K
bUUUUU L
bUUUUU M
bUUUUUUUUUUUUUUUUUUUUUUUUUUUUUUUU N
b11111111111111111111111111111111 O
b11111111111111111111111111111111 P
1Q
0R
0S
bUUUUUUUUUUUUUUUUUUUUUUUUUUUUUUUU T
bUUUUUUUUUUUUUUUUUUUUUUUUUUUUUUUU U
bUUUUUUUUUUUUUUUUUUUUUUUUUUUUUUUU V
#10000000
1#
b00000000000000000000000000000000 %
1)
1*
1,
1-
1.
10
b00000000000000000000000000000000 2
b00000000000000000000000000000000 6
b00000000000000000000000000000001 7
1I
1R
1S
#20000000
0#
0.
0I
0S
b00000000000000000000000000000000 V
#30000000
1#
b00110000000000000000000000000000 $
b00000000000000000000000000000000 &
b00000000000000000000000000000000 '
1.
b00110000000000000000000000000000 3
1I
1S
b00000000000000000000000000000000 T
b00110000000000000000000000000000 U
#40000000
0#
0.
0I
0S
bUUUUUUUUUUUUUUUUUUUUUUUUUUUUUUUU V
#50000000
1#
b00100000000000010000000000000110 $
b00000000000000000000000000000001 &
b00000000000000000000000000000001 '
1.
10
b00100000000000010000000000000110 3
b00110000000000000000000000000000 4
b00000000000000000000000000000000 5
b00000 F
1I
b00000 K
b00000 L
b00000 M
1S
b00000000000000000000000000000001 T
b00100000000000010000000000000110 U
#60000000
0#
0.
0I
0S
b00000000000000000000000000000000 V
#70000000
1#
b00110100000000100000000000010010 $
b00000000000000000000000000000010 &
b00000000000000000000000000000010 '
1.
10
b00110100000000100000000000010010 3
b00100000000000010000000000000110 4
b00000000000000000000000000000110 5
b00001 F
1I
b00001 K
b00001 M
1S
b00000000000000000000000000000010 T
b00110100000000100000000000010010 U
#80000000
0#
0.
0I
0S
#90000000
1#
b00000000001000100001100000100000 $
b00000000000000000000000000000011 &
b00000000000000000000000000000011 '
1.
10
b00000000001000100001100000100000 3
b00110100000000100000000000010010 4
b00000000000000000000000000010010 5
b00010 F
1I
b00010 K
b00010 M
1S
b00000000000000000000000000000011 T
b00000000001000100001100000100000 U
#100000000
0#
0.
0I
0S
#110000000
1#
b00000000010000010010000000100010 $
b00000000000000000000000000000100 &
b00000000000000000000000000000100 '
1.
10
b00000000010000010010000000100010 3
b00000000001000100001100000100000 4
b00000000000000000001100000100000 5
b00011 F
1I
b00011 K
b00001 L
1S
b00000000000000000000000000000100 T
b00000000010000010010000000100010 U
#120000000
0#
0.
0I
0S
#130000000
1#
b00000000001000100010100000100100 $
b00000000000000000000000000000101 &
b00000000000000000000000000000101 '
1.
10
b00000000001000100010100000100100 3
b00000000010000010010000000100010 4
b00000000000000000010000000100010 5
b00100 F
1I
b00100 K
b00010 L
b00001 M
1S
b00000000000000000000000000000101 T
b00000000001000100010100000100100 U
#140000000
0#
0.
0I
0S
#150000000
1#
b00000000001000100011000000100101 $
b00000000000000000000000000000110 &
b00000000000000000000000000000110 '
1.
10
b00000000001000100011000000100101 3
b00000000001000100010100000100100 4
b00000000000000000010100000100100 5
b00101 F
1I
b00101 K
b00001 L
b00010 M
1S
b00000000000000000000000000000110 T
b00000000001000100011000000100101 U
#160000000
0#
0.
0I
0S
#170000000
1#
b00000000001000100011100000101010 $
b00000000000000000000000000000111 &
b00000000000000000000000000000111 '
1.
10
b00000000001000100011100000101010 3
b00000000001000100011000000100101 4
b00000000000000000011000000100101 5
b00110 F
1I
b00110 K
1S
b00000000000000000000000000000111 T
b00000000001000100011100000101010 U
#180000000
0#
0.
0I
0S
#190000000
1#
b00000000000000100100000100000000 $
b00000000000000000000000000001000 &
b00000000000000000000000000001000 '
1.
10
b00000000000000100100000100000000 3
b00000000001000100011100000101010 4
b00000000000000000011100000101010 5
b00111 F
1I
b00111 K
1S
b00000000000000000000000000001000 T
b00000000000000100100000100000000 U
#200000000
0#
0.
0I
0S
#210000000
1#
b00000000000000010100100001000010 $
b00000000000000000000000000001001 &
b00000000000000000000000000001001 '
1.
10
b00000000000000010100100001000010 3
b00000000000000100100000100000000 4
b00000000000000000100000100000000 5
b01000 F
1I
b01000 K
b00000 L
1S
b00000000000000000000000000001001 T
b00000000000000010100100001000010 U
#220000000
0#
0.
0I
0S
#230000000
1#
b00010000001000100000000000000001 $
b00000000000000000000000000001010 &
b00000000000000000000000000001010 '
1.
10
b00010000001000100000000000000001 3
b00000000000000010100100001000010 4
b00000000000000000100100001000010 5
b01001 F
1I
b01001 K
b00001 M
1S
b00000000000000000000000000001010 T
b00010000001000100000000000000001 U
#240000000
0#
0.
0I
0S
#250000000
1#
b10001100000010100000000000000100 $
b00000000000000000000000000001011 &
b00000000000000000000000000001011 '
1.
10
b10001100000010100000000000000100 3
b00010000001000100000000000000001 4
b00000000000000000000000000000001 5
b00010 F
1I
b00010 K
b00001 L
b00010 M
1S
b00000000000000000000000000001011 T
b10001100000010100000000000000100 U
#260000000
0#
0.
0I
0S
#270000000
1#
b00010100001000100000000000000001 $
b00000000000000000000000000001100 &
b00000000000000000000000000001100 '
1.
10
b00010100001000100000000000000001 3
b10001100000010100000000000000100 4
b00000000000000000000000000000100 5
b01010 F
1I
b01010 K
b00000 L
b01010 M
1S
b00000000000000000000000000001100 T
b00010100001000100000000000000001 U
#280000000
0#
0.
0I
0S
#290000000
1#
b00110000001000010000000000000000 $
b00000000000000000000000000001101 &
b00000000000000000000000000001101 '
1.
10
b00110000001000010000000000000000 3
b00010100001000100000000000000001 4
b00000000000000000000000000000001 5
b00010 F
1I
b00010 K
b00001 L
b00010 M
1S
b00000000000000000000000000001101 T
b00110000001000010000000000000000 U
#300000000
0#
0.
0I
0S
#310000000
1#
b00001000000000000000000000010000 $
b00000000000000000000000000001110 &
b00000000000000000000000000001110 '
1.
10
b00001000000000000000000000010000 3
b00110000001000010000000000000000 4
b00000000000000000000000000000000 5
b00001 F
1I
b00001 K
b00001 M
1S
b00000000000000000000000000001110 T
b00001000000000000000000000010000 U
#320000000
0#
0.
0I
0S
#330000000
1#
b00110000010000100000000000000000 $
b00000000000000000000000000001111 &
b00000000000000000000000000001111 '
1.
10
b00110000010000100000000000000000 3
b00001000000000000000000000010000 4
b00000000000000000000000000010000 5
b00000 F
1I
b00000 K
b00000 L
b00000 M
1S
b00000000000000000000000000001111 T
b00110000010000100000000000000000 U
#340000000
0#
0.
0I
0S
#350000000
1#
b00000000010000000000000000001000 $
b00000000000000000000000000010000 &
b00000000000000000000000000010000 '
1.
10
b00000000010000000000000000001000 3
b00110000010000100000000000000000 4
b00000000000000000000000000000000 5
b00010 F
1I
b00010 K
b00010 L
b00010 M
1S
b00000000000000000000000000010000 T
b00000000010000000000000000001000 U
#360000000
0#
0.
0I
0S
#370000000
1#
b00110000011000110000000000000000 $
b00000000000000000000000000010001 &
b00000000000000000000000000010001 '
1.
10
b00110000011000110000000000000000 3
b00000000010000000000000000001000 4
b00000000000000000000000000001000 5
b00000 F
1I
b00000 K
b00000 M
1S
b00000000000000000000000000010001 T
b00110000011000110000000000000000 U
#380000000
0#
0.
0I
0S
#390000000
1#
b10101100000000110000000001000000 $
b00000000000000000000000000010010 &
b00000000000000000000000000010010 '
1.
10
b10101100000000110000000001000000 3
b00110000011000110000000000000000 4
b00000000000000000000000000000000 5
b00011 F
1I
b00011 K
b00011 L
b00011 M
1S
b00000000000000000000000000010010 T
b10101100000000110000000001000000 U
#400000000
0#
0.
0I
0S
#410000000
1#
b10101100000001000000000001000001 $
b00000000000000000000000000010011 &
b00000000000000000000000000010011 '
1.
10
b10101100000001000000000001000001 3
b10101100000000110000000001000000 4
b00000000000000000000000001000000 5
1I
b00000 L
1S
b00000000000000000000000000010011 T
b10101100000001000000000001000001 U
#420000000
0#
0.
0I
0S
#430000000
1#
b10101100000001000000000001000010 $
b00000000000000000000000000010100 &
b00000000000000000000000000010100 '
1.
10
b10101100000001000000000001000010 3
b10101100000001000000000001000001 4
b00000000000000000000000001000001 5
b00100 F
1I
b00100 K
b00100 M
1S
b00000000000000000000000000010100 T
b10101100000001000000000001000010 U
#440000000
0#
0.
0I
0S
#450000000
1#
b10101100000001000000000001000011 $
b00000000000000000000000000010101 &
b00000000000000000000000000010101 '
1.
10
b10101100000001000000000001000011 3
b10101100000001000000000001000010 4
b00000000000000000000000001000010 5
1I
1S
b00000000000000000000000000010101 T
b10101100000001000000000001000011 U
#460000000
0#
0.
0I
0S
#470000000
1#
b10101100000001000000000001000100 $
b00000000000000000000000000010110 &
b00000000000000000000000000010110 '
1.
10
b10101100000001000000000001000100 3
b10101100000001000000000001000011 4
b00000000000000000000000001000011 5
1I
1S
b00000000000000000000000000010110 T
b10101100000001000000000001000100 U
#480000000
0#
0.
0I
0S
#490000000
1#
b10101100000001000000000001000101 $
b00000000000000000000000000010111 &
b00000000000000000000000000010111 '
1.
10
b10101100000001000000000001000101 3
b10101100000001000000000001000100 4
b00000000000000000000000001000100 5
1I
1S
b00000000000000000000000000010111 T
b10101100000001000000000001000101 U
#500000000
0#
0.
0I
0S
#510000000
1#
b10101100000001000000000001000110 $
b00000000000000000000000000011000 &
b00000000000000000000000000011000 '
1.
10
b10101100000001000000000001000110 3
b10101100000001000000000001000101 4
b00000000000000000000000001000101 5
1I
1S
b00000000000000000000000000011000 T
b10101100000001000000000001000110 U
#520000000
0#
0.
0I
0S
#530000000
1#
b10101100000001000000000001000111 $
b00000000000000000000000000011001 &
b00000000000000000000000000011001 '
1.
10
b10101100000001000000000001000111 3
b10101100000001000000000001000110 4
b00000000000000000000000001000110 5
1I
1S
b00000000000000000000000000011001 T
b10101100000001000000000001000111 U
#540000000
0#
0.
0I
0S
#550000000
1#
b00000000000000000000000000000000 $
b00000000000000000000000000000000 '
0)
0*
0,
0-
1.
10
b00000000000000000000000000000000 3
b10101100000001000000000001000111 4
b00000000000000000000000001000111 5
1I
0R
1S
b00000000000000000000000000000000 T
b00000000000000000000000000000000 U
#560000000
0#
b00110000000000000000000000000000 $
0.
b00110000000000000000000000000000 3
0I
0S
b00110000000000000000000000000000 U
b00110000000000000000000000000000 V
#570000000
1#
0(
1.
0/
10
b00110000000000000000000000000000 4
b00000000000000000000000000000000 5
b00000 F
1I
b00000 K
b00000 M
1S
#580000000
0#
0.
0I
0S
#590000000
0!
1#
bZZZZZZZZZZZZZZZZZZZZZZZZZZZZZZZZ $
bUUUUUUUUUUUUUUUUUUUUUUUUUUUUUUUU %
bUUUUUUUUUUUUUUUUUUUUUUUUUUUUUUUU '
0+
1.
00
bUUUUUUUUUUUUUUUUUUUUUUUUUUUUUUUU 2
bZZZZZZZZZZZZZZZZZZZZZZZZZZZZZZZZ 3
b00000000000000000000000000000001 6
0A
1C
b1 G
b10 H
1I
0Q
1S
bUUUUUUUUUUUUUUUUUUUUUUUUUUUUUUUU T
bZZZZZZZZZZZZZZZZZZZZZZZZZZZZZZZZ U
#600000000
0#
0.
0I
0S
#610000000
1#
1.
b00000000000000000000000000000000 <
b00000000000000000000000000000000 =
0C
1D
b10 G
b11 H
1I
1S
#620000000
0#
0.
0I
0S
#630000000
1#
b00000000000000000000000000000000 %
b00000000000000000000000000000000 '
1.
b00000000000000000000000000000000 2
b00000000000000000000000000000000 :
b00000000000000000000000000000000 >
1@
b11 G
b0 H
1I
1J
b00000000000000000000000000000000 N
1S
b00000000000000000000000000000000 T
#640000000
0#
0.
0I
0S
#650000000
1!
1#
b00110000000000000000000000000000 $
b00000000000000000000000000000001 %
b00000000000000000000000000000001 '
1+
1.
10
b00000000000000000000000000000001 2
b00110000000000000000000000000000 3
b00000000000000000000000000000010 7
b00000000000000000000000000000000 8
b00000000000000000000000000000000 9
b00000000000000000000000000000000 ;
0@
1A
b0 G
b1 H
1I
0J
b00000000000000000000000000000000 O
b00000000000000000000000000000000 P
1Q
1S
b00000000000000000000000000000001 T
b00110000000000000000000000000000 U
#660000000
0#
b00100000000000010000000000000110 $
0.
b00100000000000010000000000000110 3
0I
0S
b00100000000000010000000000000110 U
b00100000000000010000000000000110 V
#670000000
0!
1#
bZZZZZZZZZZZZZZZZZZZZZZZZZZZZZZZZ $
b00000000000000000000000000000000 %
b00000000000000000000000000000000 '
0+
1.
00
b00000000000000000000000000000000 2
bZZZZZZZZZZZZZZZZZZZZZZZZZZZZZZZZ 3
b00100000000000010000000000000110 4
b00000000000000000000000000000110 5
b00000000000000000000000000000010 6
b11111111111111111111111111111111 9
b00000000000000000000000000000110 <
0A
1C
b00001 F
b1 G
b10 H
1I
b00001 K
b00001 M
b11111111111111111111111111111111 P
0Q
1S
b00000000000000000000000000000000 T
bZZZZZZZZZZZZZZZZZZZZZZZZZZZZZZZZ U
#680000000
0#
0.
0I
0S
b00110000000000000000000000000000 V
#690000000
1#
1.
b00000000000000000000000000000110 =
0C
b10 G
b11 H
1I
1S
#700000000
0#
0.
0I
0S
#710000000
1#
b00000000000000000000000000000110 %
b00000000000000000000000000000110 '
1.
b00000000000000000000000000000110 2
b00000000000000000000000000000110 :
b00000000000000000000000000000000 =
b00000000000000000000000000000110 >
1@
b11 G
b0 H
1I
1J
b00000000000000000000000000000110 N
1S
b00000000000000000000000000000110 T
#720000000
0#
0.
0I
0S
b00000000001000100011000000100101 V
#730000000
1!
1#
b00000000001000100011000000100101 $
b00000000000000000000000000000010 %
b00000000000000000000000000000010 '
1+
1.
10
b00000000000000000000000000000010 2
b00000000001000100011000000100101 3
b00000000000000000000000000000011 7
b00000000000000000000000000000110 9
0@
1A
b0 G
b1 H
1I
0J
b00000000000000000000000000000110 P
1Q
1S
b00000000000000000000000000000010 T
b00000000001000100011000000100101 U
#740000000
0#
b00110100000000100000000000010010 $
0.
b00110100000000100000000000010010 3
0I
0S
b00110100000000100000000000010010 U
b00110100000000100000000000010010 V
#750000000
0!
1#
bZZZZZZZZZZZZZZZZZZZZZZZZZZZZZZZZ $
b00000000000000000000000000000110 %
b00000000000000000000000000000110 '
0+
1.
00
b00000000000000000000000000000110 2
bZZZZZZZZZZZZZZZZZZZZZZZZZZZZZZZZ 3
b00110100000000100000000000010010 4
b00000000000000000000000000010010 5
b00000000000000000000000000000011 6
b11111111111111111111111111111111 9
b00000000000000000000000000010010 <
0A
1C
b00010 F
b1 G
b10 H
1I
b00010 K
b00010 M
b11111111111111111111111111111111 P
0Q
1S
b00000000000000000000000000000110 T
bZZZZZZZZZZZZZZZZZZZZZZZZZZZZZZZZ U
#760000000
0#
0.
0I
0S
b00000000001000100011000000100101 V
#770000000
1#
1.
b00000000000000000000000000010010 =
0C
b10 G
b11 H
1I
1S
#780000000
0#
0.
0I
0S
#790000000
1#
b00000000000000000000000000010010 %
b00000000000000000000000000010010 '
1.
b00000000000000000000000000010010 2
b00000000000000000000000000010010 :
b00000000000000000000000000000000 =
b00000000000000000000000000010010 >
1@
b11 G
b0 H
1I
1J
b00000000000000000000000000010010 N
1S
b00000000000000000000000000010010 T
#800000000
0#
0.
0I
0S
b10101100000000110000000001000000 V
#810000000
1!
1#
b10101100000000110000000001000000 $
b00000000000000000000000000000011 %
b00000000000000000000000000000011 '
1+
1.
10
b00000000000000000000000000000011 2
b10101100000000110000000001000000 3
b00000000000000000000000000000100 7
b00000000000000000000000000010010 9
0@
1A
b0 G
b1 H
1I
0J
b00000000000000000000000000010010 P
1Q
1S
b00000000000000000000000000000011 T
b10101100000000110000000001000000 U
#820000000
0#
b00000000001000100001100000100000 $
0.
b00000000001000100001100000100000 3
0I
0S
b00000000001000100001100000100000 U
b00000000001000100001100000100000 V
#830000000
0!
1#
bZZZZZZZZZZZZZZZZZZZZZZZZZZZZZZZZ $
b00000000000000000000000000010010 %
b00000000000000000000000000010010 '
0+
1.
00
b00000000000000000000000000010010 2
bZZZZZZZZZZZZZZZZZZZZZZZZZZZZZZZZ 3
b00000000001000100001100000100000 4
b00000000000000000001100000100000 5
b00000000000000000000000000000100 6
b00000000000000000000000000000110 8
b00000000000000000000000000000110 ;
b00000000000000000001100000100000 <
0A
0C
b00011 F
b1 G
b10 H
1I
b00011 K
b00001 L
b00000000000000000000000000000110 O
0Q
1S
b00000000000000000000000000010010 T
bZZZZZZZZZZZZZZZZZZZZZZZZZZZZZZZZ U
#840000000
0#
0.
0I
0S
b10101100000000110000000001000000 V
#850000000
1#
1.
b00000000000000000000000000010010 <
b00000000000000000000000000011000 =
0D
b10 G
b11 H
1I
1S
#860000000
0#
0.
0I
0S
#870000000
1#
b00000000000000000000000000011000 %
b00000000000000000000000000011000 '
1.
b00000000000000000000000000011000 2
b00000000000000000000000000011000 :
b00000000000000000000000000000000 =
b00000000000000000000000000011000 >
1@
b11 G
b0 H
1I
1J
b00000000000000000000000000011000 N
1S
b00000000000000000000000000011000 T
#880000000
0#
0.
0I
0S
b10101100000001000000000001000110 V
#890000000
1!
1#
b10101100000001000000000001000110 $
b00000000000000000000000000000100 %
b00000000000000000000000000000100 '
1+
1.
10
b00000000000000000000000000000100 2
b10101100000001000000000001000110 3
b00000000000000000000000000000101 7
0@
1A
b0 G
b1 H
1I
0J
1Q
1S
b00000000000000000000000000000100 T
b10101100000001000000000001000110 U
#900000000
0#
b00000000010000010010000000100010 $
0.
b00000000010000010010000000100010 3
0I
0S
b00000000010000010010000000100010 U
b00000000010000010010000000100010 V
#910000000
0!
1#
bZZZZZZZZZZZZZZZZZZZZZZZZZZZZZZZZ $
b00000000000000000000000000011000 %
b00000000000000000000000000011000 '
0+
1.
00
b00000000000000000000000000011000 2
bZZZZZZZZZZZZZZZZZZZZZZZZZZZZZZZZ 3
b00000000010000010010000000100010 4
b00000000000000000010000000100010 5
b00000000000000000000000000000101 6
b00000000000000000000000000010010 8
b00000000000000000000000000000110 9
b00000000000000000000000000010010 ;
b00000000000000000000000000000110 <
0A
b00100 F
b1 G
b10 H
1I
b00100 K
b00010 L
b00001 M
b00000000000000000000000000010010 O
b00000000000000000000000000000110 P
0Q
1S
b00000000000000000000000000011000 T
bZZZZZZZZZZZZZZZZZZZZZZZZZZZZZZZZ U
#920000000
0#
0.
0I
0S
b10101100000001000000000001000110 V
#930000000
1#
1.
b00000000000000000000000000001100 =
b10 G
b11 H
1I
1S
#940000000
0#
0.
0I
0S
#950000000
1#
b00000000000000000000000000001100 %
b00000000000000000000000000001100 '
1.
b00000000000000000000000000001100 2
b00000000000000000000000000001100 :
b00000000000000000000000000000000 =
b00000000000000000000000000001100 >
1@
b11 G
b0 H
1I
1J
b00000000000000000000000000001100 N
1S
b00000000000000000000000000001100 T
#960000000
0#
0.
0I
0S
b00010100001000100000000000000001 V
#970000000
1!
1#
b00010100001000100000000000000001 $
b00000000000000000000000000000101 %
b00000000000000000000000000000101 '
1+
1.
10
b00000000000000000000000000000101 2
b00010100001000100000000000000001 3
b00000000000000000000000000000110 7
0@
1A
b0 G
b1 H
1I
0J
1Q
1S
b00000000000000000000000000000101 T
b00010100001000100000000000000001 U
#980000000
0#
b00000000001000100010100000100100 $
0.
b00000000001000100010100000100100 3
0I
0S
b00000000001000100010100000100100 U
b00000000001000100010100000100100 V
#990000000
0!
1#
bZZZZZZZZZZZZZZZZZZZZZZZZZZZZZZZZ $
b00000000000000000000000000001100 %
b00000000000000000000000000001100 '
0+
1.
00
b00000000000000000000000000001100 2
bZZZZZZZZZZZZZZZZZZZZZZZZZZZZZZZZ 3
b00000000001000100010100000100100 4
b00000000000000000010100000100100 5
b00000000000000000000000000000110 6
b00000000000000000000000000000110 8
b00000000000000000000000000010010 9
b00000000000000000000000000000110 ;
b00000000000000000000000000010010 <
0A
b00101 F
b1 G
b10 H
1I
b00101 K
b00001 L
b00010 M
b00000000000000000000000000000110 O
b00000000000000000000000000010010 P
0Q
1S
b00000000000000000000000000001100 T
bZZZZZZZZZZZZZZZZZZZZZZZZZZZZZZZZ U
#1000000000
0#
0.
0I
0S
b00010100001000100000000000000001 V
#1010000000
1#
1.
b00000000000000000000000000000010 =
b10 G
b11 H
1I
1S
#1020000000
0#
0.
0I
0S
#1030000000
1#
b00000000000000000000000000000010 %
b00000000000000000000000000000010 '
1.
b00000000000000000000000000000010 2
b00000000000000000000000000000010 :
b00000000000000000000000000000000 =
b00000000000000000000000000000010 >
1@
b11 G
b0 H
1I
1J
b00000000000000000000000000000010 N
1S
b00000000000000000000000000000010 T
#1040000000
0#
0.
0I
0S
b00110100000000100000000000010010 V
#1050000000
1!
1#
b00110100000000100000000000010010 $
b00000000000000000000000000000110 %
b00000000000000000000000000000110 '
1+
1.
10
b00000000000000000000000000000110 2
b00110100000000100000000000010010 3
b00000000000000000000000000000111 7
0@
1A
b0 G
b1 H
1I
0J
1Q
1S
b00000000000000000000000000000110 T
b00110100000000100000000000010010 U
#1060000000
0#
b00000000001000100011000000100101 $
0.
b00000000001000100011000000100101 3
0I
0S
b00000000001000100011000000100101 U
b00000000001000100011000000100101 V
#1070000000
0!
1#
bZZZZZZZZZZZZZZZZZZZZZZZZZZZZZZZZ $
b00000000000000000000000000000010 %
b00000000000000000000000000000010 '
0+
1.
00
b00000000000000000000000000000010 2
bZZZZZZZZZZZZZZZZZZZZZZZZZZZZZZZZ 3
b00000000001000100011000000100101 4
b00000000000000000011000000100101 5
b00000000000000000000000000000111 6
0A
b00110 F
b1 G
b10 H
1I
b00110 K
0Q
1S
b00000000000000000000000000000010 T
bZZZZZZZZZZZZZZZZZZZZZZZZZZZZZZZZ U
#1080000000
0#
0.
0I
0S
b00110100000000100000000000010010 V
#1090000000
1#
1.
b00000000000000000000000000010110 =
b10 G
b11 H
1I
1S
#1100000000
0#
0.
0I
0S
#1110000000
1#
b00000000000000000000000000010110 %
b00000000000000000000000000010110 '
1.
b00000000000000000000000000010110 2
b00000000000000000000000000010110 :
b00000000000000000000000000000000 =
b00000000000000000000000000010110 >
1@
b11 G
b0 H
1I
1J
b00000000000000000000000000010110 N
1S
b00000000000000000000000000010110 T
#1120000000
0#
0.
0I
0S
b10101100000001000000000001000100 V
#1130000000
1!
1#
b10101100000001000000000001000100 $
b00000000000000000000000000000111 %
b00000000000000000000000000000111 '
1+
1.
10
b00000000000000000000000000000111 2
b10101100000001000000000001000100 3
b00000000000000000000000000001000 7
0@
1A
b0 G
b1 H
1I
0J
1Q
1S
b00000000000000000000000000000111 T
b10101100000001000000000001000100 U
#1140000000
0#
b00000000001000100011100000101010 $
0.
b00000000001000100011100000101010 3
0I
0S
b00000000001000100011100000101010 U
b00000000001000100011100000101010 V
#1150000000
0!
1#
bZZZZZZZZZZZZZZZZZZZZZZZZZZZZZZZZ $
b00000000000000000000000000010110 %
b00000000000000000000000000010110 '
0+
1.
00
b00000000000000000000000000010110 2
bZZZZZZZZZZZZZZZZZZZZZZZZZZZZZZZZ 3
b00000000001000100011100000101010 4
b00000000000000000011100000101010 5
b00000000000000000000000000001000 6
0A
b00111 F
b1 G
b10 H
1I
b00111 K
0Q
1S
b00000000000000000000000000010110 T
bZZZZZZZZZZZZZZZZZZZZZZZZZZZZZZZZ U
#1160000000
0#
0.
0I
0S
b10101100000001000000000001000100 V
#1170000000
1#
1.
b00000000000000000000000000000001 =
b10 G
b11 H
1I
1S
#1180000000
0#
0.
0I
0S
#1190000000
1#
b00000000000000000000000000000001 %
b00000000000000000000000000000001 '
1.
b00000000000000000000000000000001 2
b00000000000000000000000000000001 :
b00000000000000000000000000000000 =
b00000000000000000000000000000001 >
1@
b11 G
b0 H
1I
1J
b00000000000000000000000000000001 N
1S
b00000000000000000000000000000001 T
#1200000000
0#
0.
0I
0S
b00100000000000010000000000000110 V
#1210000000
1!
1#
b00100000000000010000000000000110 $
b00000000000000000000000000001000 %
b00000000000000000000000000001000 '
1+
1.
10
b00000000000000000000000000001000 2
b00100000000000010000000000000110 3
b00000000000000000000000000001001 7
0@
1A
b0 G
b1 H
1I
0J
1Q
1S
b00000000000000000000000000001000 T
b00100000000000010000000000000110 U
#1220000000
0#
b00000000000000100100000100000000 $
0.
b00000000000000100100000100000000 3
0I
0S
b00000000000000100100000100000000 U
b00000000000000100100000100000000 V
#1230000000
0!
1#
bZZZZZZZZZZZZZZZZZZZZZZZZZZZZZZZZ $
b00000000000000000000000000000001 %
b00000000000000000000000000000001 '
0+
1.
00
b00000000000000000000000000000001 2
bZZZZZZZZZZZZZZZZZZZZZZZZZZZZZZZZ 3
b00000000000000100100000100000000 4
b00000000000000000100000100000000 5
b00000000000000000000000000001001 6
b00000000000000000000000000000000 8
b00000000000000000000000000000000 ;
0A
b01000 F
b1 G
b10 H
1I
b01000 K
b00000 L
b00000000000000000000000000000000 O
0Q
1S
b00000000000000000000000000000001 T
bZZZZZZZZZZZZZZZZZZZZZZZZZZZZZZZZ U
#1240000000
0#
0.
0I
0S
b00100000000000010000000000000110 V
#1250000000
1#
1.
b00000000000000000000000100100000 =
b10 G
b11 H
1I
1S
#1260000000
0#
0.
0I
0S
#1270000000
1#
b00000000000000000000000100100000 %
b00000000000000000000000100100000 '
1.
b00000000000000000000000100100000 2
b00000000000000000000000100100000 :
b00000000000000000000000000000000 =
b00000000000000000000000100100000 >
1@
b11 G
b0 H
1I
1J
b00000000000000000000000100100000 N
1S
b00000000000000000000000100100000 T
#1280000000
0#
0.
0I
0S
b00000000000000000000000000000000 V
#1290000000
1!
1#
b00000000000000000000000000000000 $
b00000000000000000000000000001001 %
b00000000000000000000000000001001 '
1+
1.
10
b00000000000000000000000000001001 2
b00000000000000000000000000000000 3
b00000000000000000000000000001010 7
0@
1A
b0 G
b1 H
1I
0J
1Q
1S
b00000000000000000000000000001001 T
b00000000000000000000000000000000 U
#1300000000
0#
b00000000000000010100100001000010 $
0.
b00000000000000010100100001000010 3
0I
0S
b00000000000000010100100001000010 U
b00000000000000010100100001000010 V
#1310000000
0!
1#
bZZZZZZZZZZZZZZZZZZZZZZZZZZZZZZZZ $
b00000000000000000000000100100000 %
b00000000000000000000000100100000 '
0+
1.
00
b00000000000000000000000100100000 2
bZZZZZZZZZZZZZZZZZZZZZZZZZZZZZZZZ 3
b00000000000000010100100001000010 4
b00000000000000000100100001000010 5
b00000000000000000000000000001010 6
b00000000000000000000000000000110 9
b00000000000000000000000000000110 <
0A
b01001 F
b1 G
b10 H
1I
b01001 K
b00001 M
b00000000000000000000000000000110 P
0Q
1S
b00000000000000000000000100100000 T
bZZZZZZZZZZZZZZZZZZZZZZZZZZZZZZZZ U
#1320000000
0#
0.
0I
0S
b00000000000000000000000000000000 V
#1330000000
1#
1.
b00000000000000000000000000000011 =
b10 G
b11 H
1I
1S
#1340000000
0#
0.
0I
0S
